{
  "loginApiUrl": "http://nrg.neilsherman.co.uk:8080/v1/login",
  "logoutApiUrl": "http://nrg.neilsherman.co.uk:8080/v1/logout",
  "userDetailsApiUrl": "http://nrg.neilsherman.co.uk:8080/v1/userdetails",
  "accountDetailsApiUrl": "http://nrg.neilsherman.co.uk:8080/v1/accountdetails",
  "energyUsageApiUrl": "http://nrg.neilsherman.co.uk:8080/v1/energyusage"
}
